module example

go 1.19

require (
	github.com/jackc/pgx/v5 v5.4.3
	github.com/mattn/go-sqlite3 v1.14.17
)

require (
	github.com/jackc/pgpassfile v1.0.0 // indirect
	github.com/jackc/pgservicefile v0.0.0-20221227161230-091c0ba34f0a // indirect
	golang.org/x/crypto v0.9.0 // indirect
	golang.org/x/text v0.9.0 // indirect
)
