{
	"name": "database",
	"imports": [],
	"database_backends": ["sqlite3"],
	"schemas": [
		{
			"name": "user",
			"table_name": "users",
			"identifier": "name",
			"fields": {
				"name": "smallString",
				"created": "timestamp",
				"metadata": "jsonData"
			}
		}
	]
}
